{
	"name": "BigLab",
	"version": "9.0.2",
	"title": "Big Lab",
	"author": "DellAquila",
	"factorio_version": "1.1",
	"description": "A Big Lab that process your science quickier and accepts more modules. From Liquify Science and Big Lab."
}