{
  "name": "SmogVisualPollution",
  "version": "1.2.2",
  
  "title": "Smog Visual Pollution",
  "description": "Now high pollution makes gray smog",
  
  "author": "darkfrei",
  "license": "MIT",
  
  "dependencies": ["base"],
  "factorio_version": "1.1"
}