{
  "name": "bobicons",
  "version": "1.0.0",
  "factorio_version": "1.1",
  "title": "Bob's Icons",
  "author": "nastyslave",
  "description": "Some alternate icons for bobs&angels mods with give an alternate look to items & components. Credits&greetz to Necriptos & CitizenJoe, Aonova, qjm123/Qumojo, Inequalitix and kirazy + thanks to Topaz Gigapixel+DeNoise AI",
  "dependencies": ["base >= 1.0.0",
  "? boblibrary",
  "? bobassembly",
  "? bobelectronics",
  "? bobenemies",
  "? boblogistics",
  "? bobmining",
  "? bobmodules",
  "? bobplates",
  "? bobpower",
  "? bobrevamp",
  "? bobwarfare",

  "? angelsrefining",
  "? angelsbioprocessing",
  "? angelspetrochem",
  "? angelssmelting",
  
  "? extendedangels",
  "? ShinyBob_Icons",
  "? ShinyAngelGFX",
  "? ShinyBobGFX",
  "? ShinyBob",
  "? bobmods_gfxtweak",
  
  "? reskins-library",
  "? reskins-angels",
  "? reskins-bobs",

  "? KaoExtended"
  ]
}