{
  "name": "paranoidal-tweaks",
  "version": "0.18.34",
  "title": "paranoidal tweaks for 1.1",
  "factorio_version": "1.1",
  "author": "sbelyakov",
  "contact": "discord : https://discord.gg/",
  "homepage": "discord : https://discord.gg/",
  "description": "small paranoidal tweaks",
  "dependencies": [
    "base >= 1.1",
    "boblibrary", 
    "? boblogistics"
    ]
}
